{
  "consumer": {
    "name": "weather"
  },
  "provider": {
    "name": "temperature_info"
  },
  "interactions": [
    {
      "description": "get temperature for city",
      "providerState": "know temperature",
      "request": {
        "method": "get",
        "path": "/api/temperature",
        "query": "city=Sopot",
        "matchingRules": {
          "$.query.city[0]": {
            "match": "regex",
            "regex": "[a-zA-Z]+"
          }
        }
      },
      "response": {
        "status": 200,
        "headers": {
          "Content-Type": "application/json; charset=utf-8"
        },
        "body": {
          "city": "Sopot",
          "temperature": 3
        },
        "matchingRules": {
          "$.headers.Content-Type": {
            "match": "regex",
            "regex": "application\\/json"
          },
          "$.body": {
            "match": "type"
          },
          "$.body.temperature": {
            "match": "type"
          }
        }
      }
    }
  ],
  "metadata": {
    "pactSpecification": {
      "version": "2.0.0"
    }
  }
}